14-5-24-20 21-16: "6-15-15-20-2-15-20 20-23-15: 7-18-21-14-11-12-5'19 7-18-5-22-5-14-7-5"
22-9-22-1-14 12-15-19 16-1-20-15-19 4-5 12-1 16-9-19-3-9-14-1
2-21-20 23-8-15 19-20-15-12-5 20-8-5 3-1-16-5-18-19?
8-1-16-16-25 14-15-23, 1-18-9-5-12?
9-20 23-15-18-11-19 6-15-18 16-9-9-9-9-9-9-9-9-9-9-9-9-9-9-9-9-9-7-19!
20-15 2-5 3-15-14-20-9-14-21-5-4...
